3.5 Software structure and design decisions | Tidy tools for supporting fluent workflow in temporal data analysis
…
            Tidy tools for supporting fluent workflow in temporal data analysis

3.5 Software structure and design decisions

The tsibble package development follows closely to the tidyverse design principles (Tidyverse Team 2019).

3.5.1 Data first

The primary force that drives the software’s design choices is “data”. All functions in the package tsibble start with data or its variants as the first argument, namely “data first”. This lays out a consistent interface and addresses the significance of the data throughout the software.

Beyond the tools, the print display provides a quick and comprehensive glimpse of data in temporal contexts, particularly useful when handling a large collection of data. The contextual information provided by the print() function, shown below from Table 3.1, contains (1) data dimension with its shorthand time interval, alongside time zone if date-times, (2) variables that constitute the “key” with the number of units. These summaries aid users in understanding their data better.

#> # A tsibble: 12 x 5 [1Y]
#> # Key:       country, gender [6]
#>   country     continent gender  year count
#>   <chr>       <chr>     <chr>  <dbl> <dbl>
#> 1 Australia   Oceania   Female  2011   120
#> 2 Australia   Oceania   Female  2012   125
#> 3 Australia   Oceania   Male    2011   176
#> 4 Australia   Oceania   Male    2012   161
#> 5 New Zealand Oceania   Female  2011    36
#> # … with 7 more rows
…
